<svg width="25" height="5" viewBox="0 0 25 5" fill="none" xmlns="http://www.w3.org/2000/svg">
<path d="M2.5 0C3.16304 0 3.79898 0.263398 4.26782 0.732239C4.73666 1.20108 5 1.83696 5 2.5C5 3.16304 4.73666 3.79892 4.26782 4.26776C3.79898 4.7366 3.16304 5 2.5 5C1.83696 5 1.20102 4.7366 0.732178 4.26776C0.263337 3.79892 0 3.16304 0 2.5C0 1.83696 0.263337 1.20108 0.732178 0.732239C1.20102 0.263398 1.83696 0 2.5 0ZM12.5 0C13.163 0 13.799 0.263398 14.2678 0.732239C14.7367 1.20108 15 1.83696 15 2.5C15 3.16304 14.7367 3.79892 14.2678 4.26776C13.799 4.7366 13.163 5 12.5 5C11.837 5 11.201 4.7366 10.7322 4.26776C10.2633 3.79892 10 3.16304 10 2.5C10 1.83696 10.2633 1.20108 10.7322 0.732239C11.201 0.263398 11.837 0 12.5 0ZM22.5 0C23.163 0 23.799 0.263398 24.2678 0.732239C24.7367 1.20108 25 1.83696 25 2.5C25 3.16304 24.7367 3.79892 24.2678 4.26776C23.799 4.7366 23.163 5 22.5 5C21.837 5 21.201 4.7366 20.7322 4.26776C20.2633 3.79892 20 3.16304 20 2.5C20 1.83696 20.2633 1.20108 20.7322 0.732239C21.201 0.263398 21.837 0 22.5 0Z" fill="#070D19"/>
</svg>
